Lab 6: Statistics
…
Let us now plot the z values.

life_expectancy2

# A tibble: 20,445 × 7
# Groups:   bin_indicator [8]
   Entity      Code   Year life_expectancy_values z_score bin_indicator observ…¹
   <chr>       <chr> <int>                  <dbl>   <dbl> <fct>            <int>
 1 Afghanistan AFG    1950                   27.7  -0.204 (20,30]            181
 2 Afghanistan AFG    1951                   28    -0.202 (20,30]            181
 3 Afghanistan AFG    1952                   28.4  -0.200 (20,30]            181
 4 Afghanistan AFG    1953                   28.9  -0.197 (20,30]            181
 5 Afghanistan AFG    1954                   29.2  -0.195 (20,30]            181
 6 Afghanistan AFG    1955                   29.9  -0.191 (20,30]            181
 7 Afghanistan AFG    1956                   30.4  -0.188 (30,40]           1217
 8 Afghanistan AFG    1957                   30.9  -0.185 (30,40]           1217
 9 Afghanistan AFG    1958                   31.5  -0.181 (30,40]           1217
10 Afghanistan AFG    1959                   32    -0.178 (30,40]           1217
# … with 20,435 more rows, and abbreviated variable name ¹​observations
…
We can now create z-score bin indicators. First, we need to round the numbers.

life_expectancy6<-life_expectancy5%>%
  mutate(min_z_score_bin=round(min_z_score_bin, 2),
         max_z_score_bin=round(max_z_score_bin, 2))

Second, we can create character z bin indicators:

life_expectancy7<-life_expectancy6%>%
  mutate(z_score_bin=paste0("(", min_z_score_bin, " - ", "(", max_z_score_bin, ")", "]"))
life_expectancy7

# A tibble: 20,445 × 10
# Groups:   bin_indicator [8]
   Entity    Code   Year life_…¹ z_score bin_i…² obser…³ min_z…⁴ max_z…⁵ z_sco…⁶
   <chr>     <chr> <int>   <dbl>   <dbl> <fct>     <int>   <dbl>   <dbl> <chr>  
 1 Afghanis… AFG    1950    27.7  -0.204 (20,30]     181   -0.25   -0.19 (-0.25…
 2 Afghanis… AFG    1951    28    -0.202 (20,30]     181   -0.25   -0.19 (-0.25…
 3 Afghanis… AFG    1952    28.4  -0.200 (20,30]     181   -0.25   -0.19 (-0.25…
 4 Afghanis… AFG    1953    28.9  -0.197 (20,30]     181   -0.25   -0.19 (-0.25…
 5 Afghanis… AFG    1954    29.2  -0.195 (20,30]     181   -0.25   -0.19 (-0.25…
 6 Afghanis… AFG    1955    29.9  -0.191 (20,30]     181   -0.25   -0.19 (-0.25…
 7 Afghanis… AFG    1956    30.4  -0.188 (30,40]    1217   -0.19   -0.13 (-0.19…
 8 Afghanis… AFG    1957    30.9  -0.185 (30,40]    1217   -0.19   -0.13 (-0.19…
 9 Afghanis… AFG    1958    31.5  -0.181 (30,40]    1217   -0.19   -0.13 (-0.19…
10 Afghanis… AFG    1959    32    -0.178 (30,40]    1217   -0.19   -0.13 (-0.19…
# … with 20,435 more rows, and abbreviated variable names
#   ¹​life_expectancy_values, ²​bin_indicator, ³​observations, ⁴​min_z_score_bin,
#   ⁵​max_z_score_bin, ⁶​z_score_bin
…
